…
```r
master_counts %>%
  filter(speaker_type == "candidate") %>% # cands only
  distinct(speaker) %>% # unique names only
  arrange(speaker) # put list in alphabetical order
```

```
# A tibble: 31 × 1
    speaker
      <chr>
1  AUDIENCE
2  BROWNLEE
3      BUSH
4    CARSON
5    CHAFEE
6  CHRISTIE
7   CLINTON
8    CRAMER
9      CRUZ
10 EPPERSON
# ... with 21 more rows
```
…
# Say my name, say my name

let's see how many words each candidate used that referenced key democrats



```r
dems <- c("obama", "hillary", "bernie")
cand_counts %>% group_by(speaker) %>% filter(word %in% dems, party == "republicans")
```

```
Source: local data frame [93 x 9]
Groups: speaker [10]

   counts        date       party speaker_type  speaker    word  date_time
    <int>       <chr>       <chr>        <chr>    <chr>   <chr>     <date>
1       2 06 Feb 2016 republicans    candidate    TRUMP hillary 2016-02-06
2      10 06 Feb 2016 republicans    candidate     CRUZ   obama 2016-02-06
3       2 06 Feb 2016 republicans    candidate     CRUZ hillary 2016-02-06
4       1 06 Feb 2016 republicans    candidate CHRISTIE hillary 2016-02-06
5       7 06 Feb 2016 republicans    candidate    RUBIO hillary 2016-02-06
6       3 06 Feb 2016 republicans    candidate CHRISTIE   obama 2016-02-06
7       1 06 Feb 2016 republicans    candidate     BUSH hillary 2016-02-06
8       1 06 Feb 2016 republicans    candidate     CRUZ  bernie 2016-02-06
9       1 06 Feb 2016 republicans    candidate   CARSON hillary 2016-02-06
10      3 06 Feb 2016 republicans    candidate     BUSH   obama 2016-02-06
# ... with 83 more rows, and 2 more variables: word_length <int>,
#   syl_count <int>
```
…
```r
dem_mentions <- cand_counts %>% mutate(obama = ifelse(str_detect(word, "obama"), 
    counts, 0), hillary = ifelse(str_detect(word, "hillary") | str_detect(word, 
    "secretary"), counts, 0), bernie = ifelse(str_detect(word, "sanders"), counts, 
    0)) %>% gather(key = mention_who, value = mention_count, obama:bernie) %>% 
    group_by(party, speaker, date_time, mention_who) %>% summarise(mention_sum = sum(mention_count)) %>% 
    mutate(mention_who = as.factor(mention_who))
dem_mentions
```

```
Source: local data frame [210 x 5]
Groups: party, speaker, date_time [70]

       party speaker  date_time mention_who mention_sum
       <chr>   <chr>     <date>      <fctr>       <dbl>
1  democrats  CHAFEE 2015-10-13      bernie           2
2  democrats  CHAFEE 2015-10-13     hillary           0
3  democrats  CHAFEE 2015-10-13       obama           1
4  democrats CLINTON 2015-10-13      bernie           5
5  democrats CLINTON 2015-10-13     hillary           5
6  democrats CLINTON 2015-10-13       obama          13
7  democrats CLINTON 2015-11-14      bernie           8
8  democrats CLINTON 2015-11-14     hillary           3
9  democrats CLINTON 2015-11-14       obama           3
10 democrats CLINTON 2015-12-19      bernie          10
# ... with 200 more rows
```
…
```r
tidy_dem_mentions
```

```
Source: local data frame [153 x 16]
Groups: party, speaker, date_time [51]

       party speaker  date_time mention_who mention_sum debate_num
       <chr>   <chr>     <date>      <fctr>       <dbl>     <fctr>
1  democrats CLINTON 2015-10-13      bernie           5          1
2  democrats CLINTON 2015-10-13     hillary           5          1
3  democrats CLINTON 2015-10-13       obama          13          1
4  democrats CLINTON 2015-11-14      bernie           8          2
5  democrats CLINTON 2015-11-14     hillary           3          2
6  democrats CLINTON 2015-11-14       obama           3          2
7  democrats CLINTON 2015-12-19      bernie          10          3
8  democrats CLINTON 2015-12-19     hillary           2          3
9  democrats CLINTON 2015-12-19       obama           4          3
10 democrats CLINTON 2016-01-17      bernie          10          4
# ... with 143 more rows, and 10 more variables: tot_tokens <int>,
#   tot_speakers <int>, tokens <int>, types <int>, share_tokens <dbl>,
#   ttr <dbl>, avg_length <dbl>, avg_syl <dbl>, still_in <fctr>,
#   mention_prop <dbl>
```
…
But let's face it, for the GOP the only person worth mentioning is...



```r
biggest_reagan_fan <- cand_counts %>% filter(party == "republicans" & speaker %in% 
    gop_in) %>% group_by(speaker, date_time) %>% mutate(reagan = ifelse(str_detect(word, 
    "reagan"), counts, 0)) %>% summarise(reagan_sum = sum(reagan))
biggest_reagan_fan
```

```
Source: local data frame [41 x 3]
Groups: speaker [?]

   speaker  date_time reagan_sum
     <chr>     <date>      <dbl>
1     BUSH 2015-09-16          5
2     BUSH 2015-10-28          0
3     BUSH 2015-11-10          2
4     BUSH 2015-12-15          1
5     BUSH 2016-01-14          0
6     BUSH 2016-01-28          1
7     BUSH 2016-02-06          2
8   CARSON 2015-09-16          2
9   CARSON 2015-10-28          1
10  CARSON 2015-11-10          0
# ... with 31 more rows
```
…
